{
	"credit": "Made with Blockbench by Thamus_Knoward",
	"ambientocclusion": false,
	"textures": {
		"particle": "block/wheat_stage6",
		"crop": "block/wheat_stage6",
		"top": "block/barley_h3"
	},
	"elements": [
		{
			"from": [0.48454, 0.1, -0.58894],
			"to": [16.48454, 0.1, 15.41106],
			"shade": false,
			"rotation": {"angle": -22.5, "axis": "y", "origin": [8.48454, -1, 6.41106]},
			"faces": {
				"up": {"uv": [0, 0, 16, 15.75], "texture": "#top"}
			}
		},
		{
			"from": [15, -1, 1.5],
			"to": [15, 15, 17.5],
			"shade": false,
			"rotation": {"angle": 0, "axis": "y", "origin": [8, 7, 6.66667]},
			"faces": {
				"east": {"uv": [0, 0, 16, 16], "texture": "#crop"},
				"west": {"uv": [0, 0, 16, 16], "texture": "#crop"}
			}
		},
		{
			"from": [5, -0.5, -1.5],
			"to": [5, 15.5, 14.5],
			"shade": false,
			"rotation": {"angle": -45, "axis": "y", "origin": [8, 7, 6.66667]},
			"faces": {
				"east": {"uv": [0, 0, 16, 16], "texture": "#crop"},
				"west": {"uv": [0, 0, 16, 16], "texture": "#crop"}
			}
		},
		{
			"from": [0, -0.5, 4],
			"to": [16, 15.5, 4],
			"shade": false,
			"rotation": {"angle": -22.5, "axis": "y", "origin": [8, 7, 4]},
			"faces": {
				"north": {"uv": [0, 0, 16, 16], "texture": "#crop"},
				"south": {"uv": [0, 0, 16, 16], "texture": "#crop"}
			}
		},
		{
			"from": [1.5, 0, 10.5],
			"to": [17.5, 16, 10.5],
			"shade": false,
			"rotation": {"angle": -22.5, "axis": "y", "origin": [8, 7, 4]},
			"faces": {
				"north": {"uv": [0, 0, 16, 16], "texture": "#crop"},
				"south": {"uv": [0, 0, 16, 16], "texture": "#crop"}
			}
		},
		{
			"from": [8, 0, -1.5],
			"to": [8, 16, 14.5],
			"shade": false,
			"rotation": {"angle": 0, "axis": "y", "origin": [9.5, 7, 13]},
			"faces": {
				"east": {"uv": [0, 0, 16, 16], "texture": "#crop"},
				"west": {"uv": [0, 0, 16, 16], "texture": "#crop"}
			}
		}
	]
}