{
	"credit": "Made with Blockbench by Thamus_Knoward",
	"texture_size": [32, 32],
	"textures": {
		"1": "block/oak_beam_timber_support"
	},
	"elements": [
		{
			"from": [5.9, 16, 12],
			"to": [10.1, 32, 16.2],
			"rotation": {"angle": 0, "axis": "y", "origin": [8, 8.25, 15.375]},
			"faces": {
				"north": {"uv": [4, 0, 8, 16], "texture": "#1"},
				"east": {"uv": [8, 0, 12, 16], "texture": "#1"},
				"south": {"uv": [12, 0, 16, 16], "texture": "#1"},
				"west": {"uv": [4, 0, 0, 16], "texture": "#1"},
				"up": {"uv": [8, 10.5, 12, 6.5], "texture": "#1"}
			}
		},
		{
			"from": [5.9, 0, 12],
			"to": [10.1, 16, 16.2],
			"rotation": {"angle": 0, "axis": "y", "origin": [8, 8.25, 15.375]},
			"faces": {
				"north": {"uv": [4, 0, 8, 16], "texture": "#1"},
				"east": {"uv": [8, 0, 12, 16], "texture": "#1"},
				"south": {"uv": [12, 0, 16, 16], "texture": "#1"},
				"west": {"uv": [4, 0, 0, 16], "texture": "#1"}
			}
		},
		{
			"from": [5.9, -16, 12],
			"to": [10.1, 0, 16.2],
			"rotation": {"angle": 0, "axis": "y", "origin": [8, 8.25, 15.375]},
			"faces": {
				"north": {"uv": [4, 0, 8, 16], "texture": "#1"},
				"east": {"uv": [8, 0, 12, 16], "texture": "#1"},
				"south": {"uv": [12, 0, 16, 16], "texture": "#1"},
				"west": {"uv": [4, 0, 0, 16], "texture": "#1"},
				"down": {"uv": [8, 12, 12, 16], "texture": "#1"}
			}
		}
	]
}