{
	"credit": "Made with Blockbench by Thamus_Knoward",
	"texture_size": [64, 64],
	"textures": {
		"0": "block/myrrish_lense_mounted",
		"particle": "block/myrrish_lense_mounted"
	},
	"elements": [
		{
			"from": [9, 25, 7.5],
			"to": [10, 26, 8.5],
			"rotation": {"angle": 45, "axis": "z", "origin": [6, 12, 7]},
			"faces": {
				"north": {"uv": [6.5, 7, 6.75, 7.25], "texture": "#0"},
				"east": {"uv": [6.75, 7, 7, 7.25], "texture": "#0"},
				"south": {"uv": [7, 7, 7.25, 7.25], "texture": "#0"},
				"west": {"uv": [7.25, 0.75, 7.5, 1], "texture": "#0"},
				"up": {"uv": [7.5, 1.25, 7.25, 1], "texture": "#0"},
				"down": {"uv": [7.5, 1.25, 7.25, 1.5], "texture": "#0"}
			}
		},
		{
			"from": [8.5, 24.9, 7.4],
			"to": [9, 26.1, 8.6],
			"rotation": {"angle": 45, "axis": "z", "origin": [6, 12, 7]},
			"faces": {
				"north": {"uv": [7.5, 0.75, 7.625, 1.0625], "texture": "#0"},
				"east": {"uv": [6.75, 4.25, 7.0625, 4.5625], "texture": "#0"},
				"south": {"uv": [7.5, 1.25, 7.625, 1.5625], "texture": "#0"},
				"west": {"uv": [4.75, 6.75, 5.0625, 7.0625], "texture": "#0"},
				"up": {"uv": [7.625, 2.0625, 7.5, 1.75], "texture": "#0"},
				"down": {"uv": [7.625, 4.25, 7.5, 4.5625], "texture": "#0"}
			}
		},
		{
			"from": [10, 24.5, 7],
			"to": [32, 26.5, 9],
			"rotation": {"angle": 45, "axis": "z", "origin": [6, 12, 7]},
			"faces": {
				"north": {"uv": [0, 0, 5.5, 0.5], "texture": "#0"},
				"east": {"uv": [5, 3.5, 5.5, 4], "texture": "#0"},
				"south": {"uv": [0, 0.5, 5.5, 1], "texture": "#0"},
				"west": {"uv": [5.5, 3.5, 6, 4], "texture": "#0"},
				"up": {"uv": [5.5, 1.5, 0, 1], "texture": "#0"},
				"down": {"uv": [5.5, 1.5, 0, 2], "texture": "#0"}
			}
		},
		{
			"from": [15.5, 24, 7.25],
			"to": [22, 24.5, 8.75],
			"rotation": {"angle": 45, "axis": "z", "origin": [6, 12, 7]},
			"faces": {
				"north": {"uv": [4, 6.25, 5.625, 6.375], "texture": "#0"},
				"east": {"uv": [7.25, 6, 7.625, 6.125], "texture": "#0"},
				"south": {"uv": [6.25, 4, 7.875, 4.125], "texture": "#0"},
				"west": {"uv": [7.25, 6.25, 7.625, 6.375], "texture": "#0"},
				"up": {"uv": [5.625, 4.375, 4, 4], "texture": "#0"},
				"down": {"uv": [5.625, 4.5, 4, 4.875], "texture": "#0"}
			}
		},
		{
			"from": [16.5, 20.25, 6.5],
			"to": [17, 23.25, 9.5],
			"rotation": {"angle": 45, "axis": "z", "origin": [6, 12, 7]},
			"faces": {
				"north": {"uv": [5.5, 1.25, 5.625, 2], "texture": "#0"},
				"east": {"uv": [5, 2, 5.75, 2.75], "texture": "#0"},
				"south": {"uv": [5.75, 6.75, 5.875, 7.5], "texture": "#0"},
				"west": {"uv": [5, 2.75, 5.75, 3.5], "texture": "#0"},
				"up": {"uv": [6.125, 7.5, 6, 6.75], "texture": "#0"},
				"down": {"uv": [6.375, 6.75, 6.25, 7.5], "texture": "#0"}
			}
		},
		{
			"from": [17.4, 23, 6.5],
			"to": [20.4, 23.5, 9.5],
			"rotation": {"angle": 45, "axis": "z", "origin": [6, 12, 7]},
			"faces": {
				"north": {"uv": [6.75, 3.25, 7.5, 3.375], "texture": "#0"},
				"east": {"uv": [6.75, 5.5, 7.5, 5.625], "texture": "#0"},
				"south": {"uv": [6.75, 5.75, 7.5, 5.875], "texture": "#0"},
				"west": {"uv": [6.5, 6.75, 7.25, 6.875], "texture": "#0"},
				"up": {"uv": [4.75, 5.75, 4, 5], "texture": "#0"},
				"down": {"uv": [5.5, 5, 4.75, 5.75], "texture": "#0"}
			}
		},
		{
			"from": [10.9, 23.7, 7.9],
			"to": [18.6, 23.95, 8.15],
			"rotation": {"angle": 45, "axis": "z", "origin": [6, 12, 7]},
			"faces": {
				"north": {"uv": [6.75, 2.25, 8.6875, 2.3125], "texture": "#0"},
				"east": {"uv": [7.75, 1.75, 7.8125, 1.8125], "texture": "#0"},
				"south": {"uv": [6.75, 2.5, 8.6875, 2.5625], "texture": "#0"},
				"west": {"uv": [7.75, 2, 7.8125, 2.0625], "texture": "#0"},
				"up": {"uv": [8.6875, 2.8125, 6.75, 2.75], "texture": "#0"},
				"down": {"uv": [8.6875, 3, 6.75, 3.0625], "texture": "#0"}
			}
		},
		{
			"from": [9.4, 23.2, 7.775],
			"to": [11.6, 24.2, 8.275],
			"rotation": {"angle": 45, "axis": "z", "origin": [6, 12, 7]},
			"faces": {
				"north": {"uv": [6.5, 0.75, 7.0625, 1], "texture": "#0"},
				"east": {"uv": [5.5, 7.5, 5.625, 7.75], "texture": "#0"},
				"south": {"uv": [6.5, 1, 7.0625, 1.25], "texture": "#0"},
				"west": {"uv": [7.5, 5.5, 7.625, 5.75], "texture": "#0"},
				"up": {"uv": [7.5625, 0.125, 7, 0], "texture": "#0"},
				"down": {"uv": [7.5625, 0.25, 7, 0.375], "texture": "#0"}
			}
		},
		{
			"from": [18.6, 15, 7.75],
			"to": [19.1, 19.5, 8.25],
			"rotation": {"angle": 45, "axis": "z", "origin": [6, 12, 7]},
			"faces": {
				"north": {"uv": [6.5, 1.25, 6.625, 2.375], "texture": "#0"},
				"east": {"uv": [4, 6.5, 4.125, 7.625], "texture": "#0"},
				"south": {"uv": [4.25, 6.5, 4.375, 7.625], "texture": "#0"},
				"west": {"uv": [4.5, 6.5, 4.625, 7.625], "texture": "#0"},
				"up": {"uv": [7.625, 7.625, 7.5, 7.5], "texture": "#0"},
				"down": {"uv": [7.875, 0, 7.75, 0.125], "texture": "#0"}
			}
		},
		{
			"from": [17.6, 15.5, 7.5],
			"to": [19.6, 16.5, 8.5],
			"rotation": {"angle": 45, "axis": "z", "origin": [6, 12, 7]},
			"faces": {
				"north": {"uv": [6.75, 1.25, 7.25, 1.5], "texture": "#0"},
				"east": {"uv": [7.25, 1.5, 7.5, 1.75], "texture": "#0"},
				"south": {"uv": [6.75, 1.5, 7.25, 1.75], "texture": "#0"},
				"west": {"uv": [7.25, 1.75, 7.5, 2], "texture": "#0"},
				"up": {"uv": [7.25, 2, 6.75, 1.75], "texture": "#0"},
				"down": {"uv": [7.25, 2, 6.75, 2.25], "texture": "#0"}
			}
		},
		{
			"from": [14.1, 21.5, 7.75],
			"to": [18.4, 22, 8.25],
			"rotation": {"angle": 45, "axis": "z", "origin": [6, 12, 7]},
			"faces": {
				"north": {"uv": [6.5, 3.5, 7.5625, 3.625], "texture": "#0"},
				"east": {"uv": [7.75, 0.25, 7.875, 0.375], "texture": "#0"},
				"south": {"uv": [6.5, 3.75, 7.5625, 3.875], "texture": "#0"},
				"west": {"uv": [7.75, 0.5, 7.875, 0.625], "texture": "#0"},
				"up": {"uv": [5.8125, 6.625, 4.75, 6.5], "texture": "#0"},
				"down": {"uv": [7.0625, 6.5, 6, 6.625], "texture": "#0"}
			}
		},
		{
			"from": [14.6, 21, 7],
			"to": [16.6, 22.7, 9],
			"rotation": {"angle": 45, "axis": "z", "origin": [6, 12, 7]},
			"faces": {
				"north": {"uv": [6, 0.5, 6.5, 0.9375], "texture": "#0"},
				"east": {"uv": [6, 1, 6.5, 1.4375], "texture": "#0"},
				"south": {"uv": [6, 1.5, 6.5, 1.9375], "texture": "#0"},
				"west": {"uv": [6, 2, 6.5, 2.4375], "texture": "#0"},
				"up": {"uv": [6.25, 3, 5.75, 2.5], "texture": "#0"},
				"down": {"uv": [6.25, 3, 5.75, 3.5], "texture": "#0"}
			}
		},
		{
			"from": [11.6, -4, 7.5],
			"to": [12.4, 21.7, 8.5],
			"rotation": {"angle": 22.5, "axis": "z", "origin": [6, 12, 7]},
			"faces": {
				"north": {"uv": [2, 2, 2.1875, 8.4375], "texture": "#0"},
				"east": {"uv": [0, 2, 0.25, 8.4375], "texture": "#0"},
				"south": {"uv": [2.25, 2, 2.4375, 8.4375], "texture": "#0"},
				"west": {"uv": [0.25, 2, 0.5, 8.4375], "texture": "#0"},
				"up": {"uv": [6.6875, 7.5, 6.5, 7.25], "texture": "#0"},
				"down": {"uv": [7.4375, 6.5, 7.25, 6.75], "texture": "#0"}
			}
		},
		{
			"from": [1.1, -4, 7.5],
			"to": [1.9, 21.7, 8.5],
			"rotation": {"angle": -22.5, "axis": "z", "origin": [6, 12, 7]},
			"faces": {
				"north": {"uv": [2.5, 2, 2.6875, 8.4375], "texture": "#0"},
				"east": {"uv": [0.5, 2, 0.75, 8.4375], "texture": "#0"},
				"south": {"uv": [2.75, 2, 2.9375, 8.4375], "texture": "#0"},
				"west": {"uv": [0.75, 2, 1, 8.4375], "texture": "#0"},
				"up": {"uv": [6.9375, 7.5, 6.75, 7.25], "texture": "#0"},
				"down": {"uv": [7.4375, 6.75, 7.25, 7], "texture": "#0"}
			}
		},
		{
			"from": [6.5, -4, 12.8],
			"to": [7.5, 21.7, 13.6],
			"rotation": {"angle": -22.5, "axis": "x", "origin": [6, 12, 7.2]},
			"faces": {
				"north": {"uv": [1, 2, 1.25, 8.4375], "texture": "#0"},
				"east": {"uv": [3, 2, 3.1875, 8.4375], "texture": "#0"},
				"south": {"uv": [1.25, 2, 1.5, 8.4375], "texture": "#0"},
				"west": {"uv": [3.25, 2, 3.4375, 8.4375], "texture": "#0"},
				"up": {"uv": [7.25, 7.4375, 7, 7.25], "texture": "#0"},
				"down": {"uv": [7.5, 7, 7.25, 7.1875], "texture": "#0"}
			}
		},
		{
			"from": [6.5, -4, 2.3],
			"to": [7.5, 21.7, 3.1],
			"rotation": {"angle": 22.5, "axis": "x", "origin": [6, 12, 7.2]},
			"faces": {
				"north": {"uv": [1.5, 2, 1.75, 8.4375], "texture": "#0"},
				"east": {"uv": [3.5, 2, 3.6875, 8.4375], "texture": "#0"},
				"south": {"uv": [1.75, 2, 2, 8.4375], "texture": "#0"},
				"west": {"uv": [3.75, 2, 3.9375, 8.4375], "texture": "#0"},
				"up": {"uv": [7.5, 7.4375, 7.25, 7.25], "texture": "#0"},
				"down": {"uv": [7.75, 0.5, 7.5, 0.6875], "texture": "#0"}
			}
		},
		{
			"from": [5.69706, 23.01076, 7],
			"to": [7.69706, 25.01076, 9],
			"rotation": {"angle": 0, "axis": "y", "origin": [5.89706, 12.41076, 7]},
			"faces": {
				"north": {"uv": [4, 5.75, 4.5, 6.25], "texture": "#0"},
				"east": {"uv": [5.75, 4, 6.25, 4.5], "texture": "#0"},
				"south": {"uv": [4.5, 5.75, 5, 6.25], "texture": "#0"},
				"west": {"uv": [5.75, 4.5, 6.25, 5], "texture": "#0"},
				"up": {"uv": [5.5, 6.25, 5, 5.75], "texture": "#0"},
				"down": {"uv": [6.25, 5, 5.75, 5.5], "texture": "#0"}
			}
		},
		{
			"from": [4.9, 22.6, 6],
			"to": [8.9, 23.4, 10],
			"rotation": {"angle": 0, "axis": "y", "origin": [6, 12, 7]},
			"faces": {
				"north": {"uv": [6.25, 5.25, 7.25, 5.4375], "texture": "#0"},
				"east": {"uv": [6.25, 6, 7.25, 6.1875], "texture": "#0"},
				"south": {"uv": [6.25, 6.25, 7.25, 6.4375], "texture": "#0"},
				"west": {"uv": [6.5, 0.5, 7.5, 0.6875], "texture": "#0"},
				"up": {"uv": [5, 3, 4, 2], "texture": "#0"},
				"down": {"uv": [5, 3, 4, 4], "texture": "#0"}
			}
		},
		{
			"from": [-3.7, 20.61, 7.0001],
			"to": [-2, 22.41, 8.9999],
			"rotation": {"angle": -45, "axis": "z", "origin": [6, 12, 7]},
			"faces": {
				"north": {"uv": [6.25, 4.25, 6.6875, 4.6875], "texture": "#0"},
				"east": {"uv": [6, 3.5, 6.5, 3.9375], "texture": "#0"},
				"south": {"uv": [6.25, 4.75, 6.6875, 5.1875], "texture": "#0"},
				"west": {"uv": [5.75, 6, 6.25, 6.4375], "texture": "#0"},
				"up": {"uv": [6.6875, 3, 6.25, 2.5], "texture": "#0"},
				"down": {"uv": [6.6875, 3, 6.25, 3.5], "texture": "#0"}
			}
		},
		{
			"from": [13.1, 21.25, 7.5],
			"to": [14.1, 22.25, 8.5],
			"rotation": {"angle": 45, "axis": "z", "origin": [6, 12, 7]},
			"faces": {
				"north": {"uv": [7.25, 2, 7.5, 2.25], "texture": "#0"},
				"east": {"uv": [7.25, 4.25, 7.5, 4.5], "texture": "#0"},
				"south": {"uv": [7.25, 4.5, 7.5, 4.75], "texture": "#0"},
				"west": {"uv": [4.75, 7.25, 5, 7.5], "texture": "#0"},
				"up": {"uv": [7.5, 5, 7.25, 4.75], "texture": "#0"},
				"down": {"uv": [5.25, 7.25, 5, 7.5], "texture": "#0"}
			}
		},
		{
			"from": [18.4, 19.5, 7.5],
			"to": [19.4, 24, 8.5],
			"rotation": {"angle": 45, "axis": "z", "origin": [6, 12, 7]},
			"faces": {
				"north": {"uv": [5.5, 0, 5.75, 1.125], "texture": "#0"},
				"east": {"uv": [5.5, 5, 5.75, 6.125], "texture": "#0"},
				"south": {"uv": [5.75, 0, 6, 1.125], "texture": "#0"},
				"west": {"uv": [5.75, 1.25, 6, 2.375], "texture": "#0"},
				"up": {"uv": [7.5, 5.25, 7.25, 5], "texture": "#0"},
				"down": {"uv": [5.5, 7.25, 5.25, 7.5], "texture": "#0"}
			}
		},
		{
			"from": [14, 26.5, 7.75],
			"to": [14.5, 27.5, 8.25],
			"rotation": {"angle": 45, "axis": "z", "origin": [6, 12, 7]},
			"faces": {
				"north": {"uv": [5.75, 7.5, 5.875, 7.75], "texture": "#0"},
				"east": {"uv": [7.5, 5.75, 7.625, 6], "texture": "#0"},
				"south": {"uv": [6, 7.5, 6.125, 7.75], "texture": "#0"},
				"west": {"uv": [6.25, 7.5, 6.375, 7.75], "texture": "#0"},
				"up": {"uv": [7.875, 0.875, 7.75, 0.75], "texture": "#0"},
				"down": {"uv": [7.875, 1, 7.75, 1.125], "texture": "#0"}
			}
		},
		{
			"from": [11, 26.5, 7.75],
			"to": [11.5, 27.5, 8.25],
			"rotation": {"angle": 45, "axis": "z", "origin": [6, 12, 7]},
			"faces": {
				"north": {"uv": [6.5, 7.5, 6.625, 7.75], "texture": "#0"},
				"east": {"uv": [7.5, 6.5, 7.625, 6.75], "texture": "#0"},
				"south": {"uv": [6.75, 7.5, 6.875, 7.75], "texture": "#0"},
				"west": {"uv": [7.5, 6.75, 7.625, 7], "texture": "#0"},
				"up": {"uv": [7.875, 1.375, 7.75, 1.25], "texture": "#0"},
				"down": {"uv": [7.875, 1.5, 7.75, 1.625], "texture": "#0"}
			}
		},
		{
			"from": [10.5, 27.5, 7.5],
			"to": [14.5, 28.5, 8.5],
			"rotation": {"angle": 45, "axis": "z", "origin": [6, 12, 7]},
			"faces": {
				"north": {"uv": [5.75, 5.5, 6.75, 5.75], "texture": "#0"},
				"east": {"uv": [7.25, 5.25, 7.5, 5.5], "texture": "#0"},
				"south": {"uv": [5.75, 5.75, 6.75, 6], "texture": "#0"},
				"west": {"uv": [5.5, 7.25, 5.75, 7.5], "texture": "#0"},
				"up": {"uv": [7, 0.25, 6, 0], "texture": "#0"},
				"down": {"uv": [7, 0.25, 6, 0.5], "texture": "#0"}
			}
		},
		{
			"from": [10, 27.65, 7.65],
			"to": [10.5, 28.35, 8.35],
			"rotation": {"angle": 45, "axis": "z", "origin": [6, 12, 7]},
			"faces": {
				"north": {"uv": [7, 7.5, 7.125, 7.6875], "texture": "#0"},
				"east": {"uv": [7.5, 3.25, 7.6875, 3.4375], "texture": "#0"},
				"south": {"uv": [7.5, 7, 7.625, 7.1875], "texture": "#0"},
				"west": {"uv": [7.5, 5.25, 7.6875, 5.4375], "texture": "#0"},
				"up": {"uv": [7.375, 7.6875, 7.25, 7.5], "texture": "#0"},
				"down": {"uv": [7.625, 7.25, 7.5, 7.4375], "texture": "#0"}
			}
		},
		{
			"from": [14.5, 27.4, 7.4],
			"to": [15, 28.6, 8.6],
			"rotation": {"angle": 45, "axis": "z", "origin": [6, 12, 7]},
			"faces": {
				"north": {"uv": [4.75, 7.5, 4.875, 7.8125], "texture": "#0"},
				"east": {"uv": [6.75, 4.75, 7.0625, 5.0625], "texture": "#0"},
				"south": {"uv": [7.5, 4.75, 7.625, 5.0625], "texture": "#0"},
				"west": {"uv": [5.25, 6.75, 5.5625, 7.0625], "texture": "#0"},
				"up": {"uv": [5.125, 7.8125, 5, 7.5], "texture": "#0"},
				"down": {"uv": [5.375, 7.5, 5.25, 7.8125], "texture": "#0"}
			}
		}
	]
}