{ "credit": "Made with Blockbench by Thamus_Knoward",
  "parent": "minecraft:block/shutter_closed_mirrored",
	"textures": {
		"3": "block/black_wood/shutter_frame_hinges",
		"2": "block/black_wood/shutter_hatch_back",
		"1": "block/black_wood/shutter_hatch_front"
	}
  }