{
	"credit": "Made with Blockbench by Thamus_Knoward",
	"texture_size": [32, 32],
	"textures": {
		"0": "block/box_hedge",
		"1": "block/dead_bush",
		"particle": "block/box_hedge"
	},
	"elements": [
		{
			"from": [5, 2, 11],
			"to": [5, 12, 16],
			"rotation": {"angle": 0, "axis": "y", "origin": [8, 7.6, 13]},
			"faces": {
				"north": {"uv": [0, 0, 0, 6.5], "texture": "#missing"},
				"east": {"uv": [0, 3, 16, 16], "texture": "#0"},
				"south": {"uv": [0, 0, 0, 6.5], "texture": "#missing"},
				"west": {"uv": [10, 5, 16, 16], "texture": "#0"},
				"up": {"uv": [0, 0, 8, 0], "rotation": 90, "texture": "#missing"},
				"down": {"uv": [0, 0, 8, 0], "rotation": 270, "texture": "#missing"}
			}
		},
		{
			"from": [5, 12, 11],
			"to": [11, 12, 16],
			"rotation": {"angle": 0, "axis": "y", "origin": [8, 7.6, 13]},
			"faces": {
				"north": {"uv": [0, 0, 3, 0], "texture": "#missing"},
				"east": {"uv": [0, 0, 8, 0], "texture": "#missing"},
				"south": {"uv": [0, 0, 3, 0], "texture": "#missing"},
				"west": {"uv": [0, 0, 8, 0], "texture": "#missing"},
				"up": {"uv": [5, 8, 11, 13], "texture": "#0"}
			}
		},
		{
			"from": [11, 2, 11],
			"to": [11, 12, 16],
			"rotation": {"angle": 0, "axis": "y", "origin": [8, 7.6, 13]},
			"faces": {
				"north": {"uv": [0, 0, 0, 6.5], "texture": "#missing"},
				"east": {"uv": [0, 5, 6, 16], "texture": "#0"},
				"south": {"uv": [0, 0, 0, 6.5], "texture": "#missing"},
				"west": {"uv": [0, 3, 16, 16], "texture": "#0"},
				"up": {"uv": [0, 0, 8, 0], "rotation": 90, "texture": "#missing"},
				"down": {"uv": [0, 0, 8, 0], "rotation": 270, "texture": "#missing"}
			}
		},
		{
			"from": [8, 0, 5.5],
			"to": [8, 12, 16],
			"rotation": {"angle": -22.5, "axis": "y", "origin": [8, 7.6, 13]},
			"faces": {
				"north": {"uv": [0, 0, 0, 7], "texture": "#missing"},
				"east": {"uv": [0, 0, 16, 16], "texture": "#1"},
				"south": {"uv": [0, 0, 0, 7], "texture": "#missing"},
				"west": {"uv": [0, 0, 16, 16], "texture": "#1"},
				"up": {"uv": [0, 0, 7.5, 0], "rotation": 90, "texture": "#missing"},
				"down": {"uv": [0, 0, 7.5, 0], "rotation": 270, "texture": "#missing"}
			}
		},
		{
			"from": [8, 0, 5.5],
			"to": [8, 12, 16],
			"rotation": {"angle": 22.5, "axis": "y", "origin": [8, 7.6, 13]},
			"faces": {
				"north": {"uv": [0, 0, 0, 7], "texture": "#missing"},
				"east": {"uv": [0, 0, 16, 16], "texture": "#1"},
				"south": {"uv": [0, 0, 0, 7], "texture": "#missing"},
				"west": {"uv": [0, 0, 16, 16], "texture": "#1"},
				"up": {"uv": [0, 0, 7.5, 0], "rotation": 90, "texture": "#missing"},
				"down": {"uv": [0, 0, 7.5, 0], "rotation": 270, "texture": "#missing"}
			}
		},
		{
			"from": [0, 2, 11],
			"to": [16, 12, 11],
			"faces": {
				"north": {"uv": [0, 3, 16, 16], "texture": "#0"},
				"east": {"uv": [0, 0, 0, 6.5], "texture": "#missing"},
				"south": {"uv": [0, 5, 16, 16], "texture": "#0"},
				"west": {"uv": [0, 0, 0, 6.5], "texture": "#missing"},
				"up": {"uv": [0, 0, 8, 0], "texture": "#missing"},
				"down": {"uv": [0, 0, 8, 0], "texture": "#missing"}
			}
		},
		{
			"from": [0, 12, 5],
			"to": [16, 12, 11],
			"faces": {
				"north": {"uv": [0, 0, 8, 0], "texture": "#missing"},
				"east": {"uv": [0, 0, 3, 0], "texture": "#missing"},
				"south": {"uv": [0, 0, 8, 0], "texture": "#missing"},
				"west": {"uv": [0, 0, 3, 0], "texture": "#missing"},
				"up": {"uv": [0, 3, 16, 8], "texture": "#0"}
			}
		},
		{
			"from": [0, 2, 5],
			"to": [16, 12, 5],
			"faces": {
				"north": {"uv": [0, 5, 16, 16], "texture": "#0"},
				"east": {"uv": [0, 0, 0, 6.5], "texture": "#missing"},
				"south": {"uv": [0, 3, 16, 16], "texture": "#0"},
				"west": {"uv": [0, 0, 0, 6.5], "texture": "#missing"},
				"up": {"uv": [0, 0, 8, 0], "texture": "#missing"},
				"down": {"uv": [0, 0, 8, 0], "texture": "#missing"}
			}
		},
		{
			"from": [0.5, 0, 8],
			"to": [15.5, 12, 8],
			"rotation": {"angle": -22.5, "axis": "y", "origin": [8, 5, 8]},
			"faces": {
				"north": {"uv": [0, 0, 16, 16], "texture": "#1"},
				"east": {"uv": [0, 0, 0, 7], "texture": "#missing"},
				"south": {"uv": [0, 0, 16, 16], "texture": "#1"},
				"west": {"uv": [0, 0, 0, 7], "texture": "#missing"},
				"up": {"uv": [0, 0, 7.5, 0], "texture": "#missing"},
				"down": {"uv": [0, 0, 7.5, 0], "texture": "#missing"}
			}
		},
		{
			"from": [0.5, 0, 8],
			"to": [15.5, 12, 8],
			"rotation": {"angle": 22.5, "axis": "y", "origin": [8, 5, 8]},
			"faces": {
				"north": {"uv": [0, 0, 16, 16], "texture": "#1"},
				"east": {"uv": [0, 0, 0, 7], "texture": "#missing"},
				"south": {"uv": [0, 0, 16, 16], "texture": "#1"},
				"west": {"uv": [0, 0, 0, 7], "texture": "#missing"},
				"up": {"uv": [0, 0, 7.5, 0], "texture": "#missing"},
				"down": {"uv": [0, 0, 7.5, 0], "texture": "#missing"}
			}
		}
	],
	"groups": [
		{
			"name": "group",
			"origin": [8, 5, 8],
			"color": 0,
			"children": [0, 1, 2, 3, 4]
		},
		{
			"name": "group",
			"origin": [8, 5, 8],
			"color": 0,
			"children": [5, 6, 7, 8, 9]
		}
	]
}