{
	"credit": "Made with Blockbench by Thamus_Knoward",
	"texture_size": [32, 32],
	"textures": {
		"0": "block/box_hedge",
		"1": "block/dead_bush",
		"particle": "block/box_hedge"
	},
	"elements": [
		{
			"from": [0, 2, 11],
			"to": [16, 12, 11],
			"faces": {
				"north": {"uv": [0, 3, 16, 16], "texture": "#0"},
				"east": {"uv": [0, 0, 0, 6.5], "texture": "#missing"},
				"south": {"uv": [0, 5, 16, 16], "texture": "#0"},
				"west": {"uv": [0, 0, 0, 6.5], "texture": "#missing"},
				"up": {"uv": [0, 0, 8, 0], "texture": "#missing"},
				"down": {"uv": [0, 0, 8, 0], "texture": "#missing"}
			}
		},
		{
			"from": [0, 2, 5],
			"to": [16, 12, 5],
			"faces": {
				"north": {"uv": [0, 5, 16, 16], "texture": "#0"},
				"east": {"uv": [0, 0, 0, 6.5], "texture": "#missing"},
				"south": {"uv": [0, 3, 16, 16], "texture": "#0"},
				"west": {"uv": [0, 0, 0, 6.5], "texture": "#missing"},
				"up": {"uv": [0, 0, 8, 0], "texture": "#missing"},
				"down": {"uv": [0, 0, 8, 0], "texture": "#missing"}
			}
		},
		{
			"from": [0.5, 0, 8],
			"to": [15.5, 12, 8],
			"rotation": {"angle": 22.5, "axis": "y", "origin": [8, 5, 8]},
			"faces": {
				"north": {"uv": [0, 0, 16, 16], "texture": "#1"},
				"east": {"uv": [0, 0, 0, 7], "texture": "#missing"},
				"south": {"uv": [0, 0, 16, 16], "texture": "#1"},
				"west": {"uv": [0, 0, 0, 7], "texture": "#missing"},
				"up": {"uv": [0, 0, 7.5, 0], "texture": "#missing"},
				"down": {"uv": [0, 0, 7.5, 0], "texture": "#missing"}
			}
		},
		{
			"from": [0.5, 0, 8],
			"to": [15.5, 12, 8],
			"rotation": {"angle": -22.5, "axis": "y", "origin": [8, 5, 8]},
			"faces": {
				"north": {"uv": [0, 0, 16, 16], "texture": "#1"},
				"east": {"uv": [0, 0, 0, 7], "texture": "#missing"},
				"south": {"uv": [0, 0, 16, 16], "texture": "#1"},
				"west": {"uv": [0, 0, 0, 7], "texture": "#missing"},
				"up": {"uv": [0, 0, 7.5, 0], "texture": "#missing"},
				"down": {"uv": [0, 0, 7.5, 0], "texture": "#missing"}
			}
		},
		{
			"from": [0, 12, 5],
			"to": [16, 12, 11],
			"faces": {
				"north": {"uv": [0, 0, 8, 0], "texture": "#missing"},
				"east": {"uv": [0, 0, 3, 0], "texture": "#missing"},
				"south": {"uv": [0, 0, 8, 0], "texture": "#missing"},
				"west": {"uv": [0, 0, 3, 0], "texture": "#missing"},
				"up": {"uv": [0, 3, 16, 8], "texture": "#0"}
			}
		}
	]
}