{
	"credit": "Made with Blockbench by Thamus_Knoward",
	"textures": {
		"0": "block/rooftest",
		"particle": "block//rooftest"
	},
	"elements": [
		{
			"from": [0, 0, 0],
			"to": [16, 4, 16],
			"faces": {
				"north": {"uv": [0, 0, 16, 2], "texture": "#0"},
				"east": {"uv": [0, 0, 4, 2], "texture": "#0"},
				"south": {"uv": [0, 12, 16, 16], "texture": "#0"},
				"west": {"uv": [0, 0, 16, 2], "texture": "#0"},
				"up": {"uv": [0, 0, 16, 16], "texture": "#0"},
				"down": {"uv": [0, 0, 16, 16], "texture": "#missing"}
			}
		},
		{
			"from": [0, 4, 0],
			"to": [16, 8, 12],
			"faces": {
				"north": {"uv": [0, 0, 16, 2], "texture": "#0"},
				"east": {"uv": [0, 0, 4, 2], "texture": "#0"},
				"south": {"uv": [0, 8.5, 16, 12.5], "texture": "#0"},
				"west": {"uv": [0, 0, 16, 2], "texture": "#0"},
				"up": {"uv": [0, 2, 16, 14], "texture": "#0"},
				"down": {"uv": [0, 0, 16, 12], "texture": "#missing"}
			}
		},
		{
			"from": [0, 8, 4],
			"to": [16, 12, 8],
			"faces": {
				"north": {"uv": [0, 0, 16, 2], "texture": "#0"},
				"east": {"uv": [0, 0, 4, 2], "texture": "#0"},
				"south": {"uv": [0, 6.25, 16, 10.25], "texture": "#0"},
				"west": {"uv": [0, 0, 16, 2], "texture": "#0"},
				"up": {"uv": [0, 2, 16, 8.5], "texture": "#0"},
				"down": {"uv": [0, 0, 16, 8], "texture": "#missing"}
			}
		},
		{
			"from": [0, 8, 0],
			"to": [16, 16, 4],
			"faces": {
				"north": {"uv": [0, 0, 16, 2], "texture": "#0"},
				"east": {"uv": [0, 0, 4, 2], "texture": "#0"},
				"south": {"uv": [0, 2, 16, 6], "texture": "#0"},
				"west": {"uv": [0, 0, 16, 2], "texture": "#0"},
				"up": {"uv": [0, 2, 16, 6], "texture": "#0"},
				"down": {"uv": [0, 0, 16, 4], "texture": "#missing"}
			}
		}
	]
}