{
	"credit": "Made with Blockbench by Thamus_Knoward",
	"textures": {
		"0": "block/jungle_planks",
		"particle": "block/jungle_planks"
	},
	"elements": [
		{
			"from": [12, 8, 0],
			"to": [16, 12, 16],
			"rotation": {"angle": 0, "axis": "x", "origin": [13, 9, 8]},
			"faces": {
				"north": {"uv": [0, 4, 4, 0], "texture": "#0"},
				"east": {"uv": [0, 4, 16, 0], "texture": "#0"},
				"south": {"uv": [0, 4, 4, 0], "texture": "#0"},
				"west": {"uv": [0, 4, 4, 0], "texture": "#0"},
				"up": {"uv": [0, 16, 4, 0], "texture": "#0"},
				"down": {"uv": [0, 16, 4, 0], "texture": "#0"}
			}
		},
		{
			"from": [4, 0, 0],
			"to": [8, 4, 16],
			"rotation": {"angle": 0, "axis": "x", "origin": [6, 2, 8]},
			"faces": {
				"north": {"uv": [0, 4, 4, 0], "texture": "#0"},
				"east": {"uv": [0, 4, 4, 0], "texture": "#0"},
				"south": {"uv": [0, 4, 4, 0], "texture": "#0"},
				"west": {"uv": [0, 4, 4, 0], "texture": "#0"},
				"up": {"uv": [0, 16, 4, 0], "texture": "#0"},
				"down": {"uv": [0, 16, 4, 0], "texture": "#0"}
			}
		},
		{
			"from": [2.5, -5.5, 6],
			"to": [6.5, 17.5, 10],
			"rotation": {"angle": -45, "axis": "z", "origin": [10, 5, 8]},
			"faces": {
				"north": {"uv": [0, 16, 4, 0], "texture": "#0"},
				"east": {"uv": [0, 16, 4, 0], "texture": "#0"},
				"south": {"uv": [0, 16, 4, 0], "texture": "#0"},
				"west": {"uv": [0, 16, 4, 0], "texture": "#0"},
				"up": {"uv": [0, 4, 4, 0], "texture": "#0"},
				"down": {"uv": [0, 4, 4, 0], "texture": "#0"}
			}
		}
	],
	"groups": [
		{
			"name": "group",
			"origin": [8, 8, 8],
			"children": [0, 1, 2]
		}
	]
}