{
	"credit": "Made with Blockbench by Thamus_Knoward",
	"textures": {
	},
	"elements": [
		{
			"from": [8.8907, -0.31501, -3.89105],
			"to": [8.8907, 7.68499, 12.10895],
			"rotation": {"angle": 22.5, "axis": "z", "origin": [8.8907, 3.68499, 1.10895]},
			"faces": {
				"east": {"uv": [0, 0, 16, 16], "texture": "#0"},
				"west": {"uv": [0, 0, 16, 16], "texture": "#0"}
			}
		},
		{
			"from": [14.53977, -1.91292, -3.39105],
			"to": [14.53977, 6.08708, 12.60895],
			"rotation": {"angle": -22.5, "axis": "z", "origin": [17.03977, 3.58708, 4.60895]},
			"faces": {
				"east": {"uv": [0, 0, 16, 16], "texture": "#0"},
				"west": {"uv": [0, 0, 16, 16], "texture": "#0"}
			}
		},
		{
			"from": [1.10895, -1.72922, 6.81641],
			"to": [17.10895, 6.27078, 6.81641],
			"rotation": {"angle": 22.5, "axis": "x", "origin": [12.10895, 2.77078, 7.31641]},
			"faces": {
				"north": {"uv": [0, 0, 16, 16], "texture": "#0"},
				"south": {"uv": [0, 0, 16, 16], "texture": "#0"}
			}
		},
		{
			"from": [5.10895, 0.09186, 1.1577],
			"to": [21.10895, 8.09186, 1.1577],
			"rotation": {"angle": -22.5, "axis": "x", "origin": [11.69113, 5.39402, 3.91504]},
			"faces": {
				"north": {"uv": [0, 0, 16, 16], "texture": "#0"},
				"east": {"uv": [0, 0, 16, 16], "texture": "#0"},
				"south": {"uv": [0, 0, 16, 16], "texture": "#0"},
				"west": {"uv": [0, 0, 16, 16], "texture": "#0"},
				"up": {"uv": [0, 0, 16, 16], "texture": "#0"},
				"down": {"uv": [0, 0, 16, 16], "texture": "#0"}
			}
		},
		{
			"from": [11.65393, -3, -3.76215],
			"to": [11.65393, 13, 12.23785],
			"rotation": {"angle": 45, "axis": "y", "origin": [11.69113, 2.39402, 3.91504]},
			"faces": {
				"east": {"uv": [0, 0, 16, 16], "texture": "#0"},
				"west": {"uv": [0, 0, 16, 16], "texture": "#0"}
			}
		},
		{
			"from": [3.80513, -3, 3.99799],
			"to": [19.80513, 13, 3.99799],
			"rotation": {"angle": 45, "axis": "y", "origin": [11.69113, 2.39402, 3.91504]},
			"faces": {
				"north": {"uv": [0, 0, 16, 16], "texture": "#0"},
				"south": {"uv": [0, 0, 16, 16], "texture": "#0"}
			}
		},
		{
			"from": [11.80447, -3, -3.95567],
			"to": [11.80447, 13, 12.04433],
			"rotation": {"angle": 0, "axis": "y", "origin": [11.69113, 2.39402, 3.91504]},
			"faces": {
				"east": {"uv": [0, 0, 16, 16], "texture": "#0"},
				"west": {"uv": [0, 0, 16, 16], "texture": "#0"}
			}
		},
		{
			"from": [3.95567, -3, 3.80447],
			"to": [19.95567, 13, 3.80447],
			"rotation": {"angle": 0, "axis": "y", "origin": [11.69113, 2.39402, 3.91504]},
			"faces": {
				"north": {"uv": [0, 0, 16, 16], "texture": "#0"},
				"south": {"uv": [0, 0, 16, 16], "texture": "#0"}
			}
		}
	],
	"groups": [
		{
			"name": "group",
			"origin": [9, 10, 8],
			"color": 0,
			"children": [0, 1]
		},
		{
			"name": "group",
			"origin": [9, 10, 8],
			"color": 0,
			"children": [2, 3]
		},
		{
			"name": "Center",
			"origin": [13, 8, 5],
			"color": 0,
			"children": [4, 5]
		},
		{
			"name": "Center",
			"origin": [13, 8, 5],
			"color": 0,
			"children": [6, 7]
		}
	]
}