{
  "variants": {
    "facing=east,half=bottom,open=false,powered=false": {
      "model": "minecraft:block/red_shutter_open",
      "y": 90
    },
    "facing=east,half=bottom,open=false,powered=true": {
      "model": "minecraft:block/red_shutter_open_mirrored",
      "y": 90
    },
    "facing=east,half=bottom,open=true,powered=false": {
      "model": "minecraft:block/red_shutter_closed",
      "y": 90
    },
        "facing=east,half=bottom,open=true,powered=true": {
      "model": "minecraft:block/red_shutter_closed_mirrored",
      "y": 90
    },
    "facing=north,half=bottom,open=false,powered=false": {
      "model": "minecraft:block/red_shutter_open"
    },
     "facing=north,half=bottom,open=false,powered=true": {
      "model": "minecraft:block/red_shutter_open_mirrored"
    },
    "facing=north,half=bottom,open=true,powered=false": {
      "model": "minecraft:block/red_shutter_closed"
    },
      "facing=north,half=bottom,open=true,powered=true": {
      "model": "minecraft:block/red_shutter_closed_mirrored"
    },
    "facing=south,half=bottom,open=false,powered=false": {
      "model": "minecraft:block/red_shutter_open",
      "y": 180
    },
     "facing=south,half=bottom,open=false,powered=true": {
      "model": "minecraft:block/red_shutter_open_mirrored",
      "y": 180
    },
    "facing=south,half=bottom,open=true,powered=false": {
      "model": "minecraft:block/red_shutter_closed",
      "y": 180
    },
        "facing=south,half=bottom,open=true,powered=true": {
      "model": "minecraft:block/red_shutter_closed_mirrored",
      "y": 180
    },
    "facing=west,half=bottom,open=false,powered=false": {
      "model": "minecraft:block/red_shutter_open",
      "y": 270
    },
     "facing=west,half=bottom,open=false,powered=true": {
      "model": "minecraft:block/red_shutter_open_mirrored",
      "y": 270
    },
    "facing=west,half=bottom,open=true,powered=false": {
      "model": "minecraft:block/red_shutter_closed",
      "y": 270
    },
    "facing=west,half=bottom,open=true,powered=true": {
      "model": "minecraft:block/red_shutter_closed_mirrored",
      "y": 270
    },
    "facing=east,half=top,open=false,powered=false": {
      "model": "minecraft:block/red_creme_shutter_open",
      "y": 90
    },
    "facing=east,half=top,open=false,powered=true": {
      "model": "minecraft:block/red_creme_shutter_open_mirrored",
      "y": 90
    },
    "facing=east,half=top,open=true,powered=false": {
      "model": "minecraft:block/red_creme_shutter_closed",
      "y": 90
    },
        "facing=east,half=top,open=true,powered=true": {
      "model": "minecraft:block/red_creme_shutter_closed_mirrored",
      "y": 90
    },
    "facing=north,half=top,open=false,powered=false": {
      "model": "minecraft:block/red_creme_shutter_open"
    },
     "facing=north,half=top,open=false,powered=true": {
      "model": "minecraft:block/red_creme_shutter_open_mirrored"
    },
    "facing=north,half=top,open=true,powered=false": {
      "model": "minecraft:block/red_creme_shutter_closed"
    },
      "facing=north,half=top,open=true,powered=true": {
      "model": "minecraft:block/red_creme_shutter_closed_mirrored"
    },
    "facing=south,half=top,open=false,powered=false": {
      "model": "minecraft:block/red_creme_shutter_open",
      "y": 180
    },
     "facing=south,half=top,open=false,powered=true": {
      "model": "minecraft:block/red_creme_shutter_open_mirrored",
      "y": 180
    },
    "facing=south,half=top,open=true,powered=false": {
      "model": "minecraft:block/red_creme_shutter_closed",
      "y": 180
    },
        "facing=south,half=top,open=true,powered=true": {
      "model": "minecraft:block/red_creme_shutter_closed_mirrored",
      "y": 180
    },
    "facing=west,half=top,open=false,powered=false": {
      "model": "minecraft:block/red_creme_shutter_open",
      "y": 270
    },
     "facing=west,half=top,open=false,powered=true": {
      "model": "minecraft:block/red_creme_shutter_open_mirrored",
      "y": 270
    },
    "facing=west,half=top,open=true,powered=false": {
      "model": "minecraft:block/red_creme_shutter_closed",
      "y": 270
    },
    "facing=west,half=top,open=true,powered=true": {
      "model": "minecraft:block/red_creme_shutter_closed_mirrored",
      "y": 270
    }
  }
}