{
  "variants": {
    "waterlogged=true": {
      "model": "minecraft:block/reed_root"
    },
    "waterlogged=false": [
      {"model": "minecraft:block/reed_leaves"},
      {"model": "minecraft:block/reed_leaves2"}
  ]
  }
}