{
  "variants": {
    "": [
      {"model": "minecraft:block/rushes_fresh"},
      {"model": "minecraft:block/rushes_fresh", "y": 90},
      {"model": "minecraft:block/rushes_fresh", "y": 180},
      {"model": "minecraft:block/rushes_fresh", "y": 270},
      {"model": "minecraft:block/rushes_fresh2"},
      {"model": "minecraft:block/rushes_fresh2", "y" :90},
      {"model": "minecraft:block/rushes_fresh2", "y" :180},
      {"model": "minecraft:block/rushes_fresh2", "y" :270},
      {"model": "minecraft:block/rushes_fresh3"},
      {"model": "minecraft:block/rushes_fresh3", "y" :90},
      {"model": "minecraft:block/rushes_fresh3", "y" :180},
      {"model": "minecraft:block/rushes_fresh3", "y" :270}
    ]
  }
}