{
  "variants": {
    "axis=x": {
      "model": "minecraft:block/stripped_oak_log_horizontal",
      "uvlock":true,
      "y":90
    },
    "axis=y": {
      "model": "minecraft:block/stripped_oak_log"
    },
    "axis=z": {
      "model": "minecraft:block/stripped_oak_log_horizontal",
      "uvlock":true
    }
  }
}